{
  "name": "Coopnational",
  "fields": [
    {
      "fieldName": "id",
      "fieldType": "String",
      "fieldValidateRules": ["required"]
    },
    {
      "fieldName": "name",
      "fieldType": "String",
      "fieldValidateRules": ["required"]
    }
  ],
  "relationships": [
    {
      "relationshipType": "many-to-one",
      "otherEntityName": "cooplocal",
      "otherEntityRelationshipName": "coopnational",
      "relationshipName": "cooplocal"
    }
  ],
  "entityTableName": "coopnational",
  "dto": "mapstruct",
  "pagination": "no",
  "service": "serviceImpl",
  "jpaMetamodelFiltering": true,
  "fluentMethods": true,
  "readOnly": false,
  "embedded": false,
  "applications": "*",
  "changelogDate": "20210411145247"
}
